Software Carpentry: xwMOOC 데이터 제품
…
플랫폼, 개발사, 퍼블리셔

플랫폼, 개발사, 퍼블리셔별로 상위 플랫폼 및 업체를 중심으로 살펴본다.

플랫폼

vg_df %>% 
  count(platform, sort=TRUE)

# A tibble: 31 x 2
   platform     n
   <chr>    <int>
 1 PS2       2161
 2 DS        2151
 3 PS3       1331
 4 Wii       1320
 5 X360      1262
 6 PSP       1209
 7 PS        1197
 8 PC         974
 9 XB         824
10 GBA        822
# ... with 21 more rows
…
